{
    "name": "orders-styles.css",
    "shortid": "IEWXRnJ",
    "inheritedReadPermissions": [],
    "inheritedEditPermissions": [],
    "creationDate": {
        "$$date": 1619209443297
    },
    "modificationDate": {
        "$$date": 1619209443297
    },
    "_id": "fxVughB9OTrtMNPS",
    "$entitySet": "assets"
}